{
  "id": "@iot.id",
  "description": "description",
  "selfLink": "@iot.selfLink",
  "Datastream": "Datastream",
  "Things": "Things",
  "location": "location",
  "properties": "properties",
  "value": "value",
  "nextLink": "nextLink",
  "FeatureOfInterest": "FeatureOfInterest",
  "phenomenonTime": "phenomenonTime",
  "result": "result"
}
